................
----------------------------------------------------------------------
Ran 16 tests in 0.032s

OK
Name             Stmts   Miss Branch BrPart  Cover   Missing
------------------------------------------------------------
Collatz.py          49      0     14      0   100%
TestCollatz.py      66      0      0      0   100%
------------------------------------------------------------
TOTAL              115      0     14      0   100%
